{
  "success": true,
  "data": {
    "current_page": 1,
    "dataArray": [
      {
        "id": 931,
        "mobile_brand_id": 545,
        "mobile_product_id": 3038,
        "account_id": 14,
        "created_at": "2021-04-19T10:08:51.000000Z",
        "updated_at": "2021-04-19T10:08:51.000000Z",
        "brand": {
          "id": 545,
          "brand_name": "kupat sederhana",
          "account_id": "14",
          "created_at": "2021-04-16T09:20:40.000000Z",
          "category_id": 4,
          "status": 1,
          "last_seen": "2021-04-16 09:22:12",
          "updated_at": "2021-04-16T09:22:12.000000Z",
          "deleted_at": "null"
        },
        "product": {
          "id": 3038,
          "brand_id": 545,
          "category_id": "1",
          "product_name": "Ketupat",
          "product_uom": "g",
          "product_size": "788.0000",
          "image_location": "null",
          "created_at": "2021-04-16T09:20:40.000000Z",
          "updated_at": "2021-04-16T09:20:40.000000Z",
          "deleted_at": "null",
          "account_id": "14",
          "status": 1
        }
      },
      {
        "id": 924,
        "mobile_brand_id": 538,
        "mobile_product_id": 3039,
        "account_id": 14,
        "created_at": "2021-04-16T09:23:51.000000Z",
        "updated_at": "2021-04-16T09:23:51.000000Z",
        "brand": {
          "id": 538,
          "brand_name": "ss",
          "account_id": "14",
          "created_at": "2021-04-15T03:58:56.000000Z",
          "category_id": 4,
          "status": 1,
          "last_seen": "2021-04-16 09:23:44",
          "updated_at": "2021-04-16T09:23:44.000000Z",
          "deleted_at": "null"
        },
        "product": {
          "id": 3039,
          "brand_id": 538,
          "category_id": "2",
          "product_name": "Teh hijau",
          "product_uom": "ml",
          "product_size": "4455.0000",
          "image_location": "null",
          "created_at": "2021-04-16T09:23:13.000000Z",
          "updated_at": "2021-04-16T09:23:13.000000Z",
          "deleted_at": "null",
          "account_id": "14",
          "status": 1
        }
      },
      {
        "id": 923,
        "mobile_brand_id": 538,
        "mobile_product_id": "null",
        "account_id": 14,
        "created_at": "2021-04-16T09:23:44.000000Z",
        "updated_at": "2021-04-16T09:23:44.000000Z",
        "brand": {
          "id": 538,
          "brand_name": "ss",
          "account_id": "14",
          "created_at": "2021-04-15T03:58:56.000000Z",
          "category_id": 4,
          "status": 1,
          "last_seen": "2021-04-16 09:23:44",
          "updated_at": "2021-04-16T09:23:44.000000Z",
          "deleted_at": "null"
        },
        "product": null
      },
      {
        "id": 922,
        "mobile_brand_id": 538,
        "mobile_product_id": "null",
        "account_id": 14,
        "created_at": "2021-04-16T09:23:43.000000Z",
        "updated_at": "2021-04-16T09:23:43.000000Z",
        "brand": {
          "id": 538,
          "brand_name": "ss",
          "account_id": "14",
          "created_at": "2021-04-15T03:58:56.000000Z",
          "category_id": 4,
          "status": 1,
          "last_seen": "2021-04-16 09:23:44",
          "updated_at": "2021-04-16T09:23:44.000000Z",
          "deleted_at": "null"
        },
        "product": null
      },
      {
        "id": 921,
        "mobile_brand_id": 545,
        "mobile_product_id": 3038,
        "account_id": 14,
        "created_at": "2021-04-16T09:22:13.000000Z",
        "updated_at": "2021-04-16T09:22:13.000000Z",
        "brand": {
          "id": 545,
          "brand_name": "kupat sederhana",
          "account_id": "14",
          "created_at": "2021-04-16T09:20:40.000000Z",
          "category_id": 4,
          "status": 1,
          "last_seen": "2021-04-16 09:22:12",
          "updated_at": "2021-04-16T09:22:12.000000Z",
          "deleted_at": "null"
        },
        "product": {
          "id": 3038,
          "brand_id": 545,
          "category_id": "1",
          "product_name": "Ketupat",
          "product_uom": "g",
          "product_size": "788.0000",
          "image_location": "null",
          "created_at": "2021-04-16T09:20:40.000000Z",
          "updated_at": "2021-04-16T09:20:40.000000Z",
          "deleted_at": "null",
          "account_id": "14",
          "status": 1
        }
      }
    ],
    "first_page_url": "https://apiku.dnaku.id/api/v1/pageFoodProducts/last_seen/14?page=1",
    "from": 1,
    "last_page": 153,
    "last_page_url": "https://apiku.dnaku.id/api/v1/pageFoodProducts/last_seen/14?page=153",
    "next_page_url": "https://apiku.dnaku.id/api/v1/pageFoodProducts/last_seen/14?page=2",
    "path": "https://apiku.dnaku.id/api/v1/pageFoodProducts/last_seen/14",
    "per_page": 5,
    "prev_page_url": "null",
    "to": 5,
    "total": 764
  },
  "message": "Find Last Seen retrieved successfully"
}